<?xml version="1.0" encoding="UTF-8"?>
<svg width="62px" height="49px" viewBox="0 0 62 49" version="1.1" xmlns="http://www.w3.org/2000/svg" xmlns:xlink="http://www.w3.org/1999/xlink">
    <!-- Generator: Sketch 60.1 (88133) - https://sketch.com -->
    <title>planet-aquan</title>
    <desc>Created with Sketch.</desc>
    <defs>
        <path d="M0.218,22.988 C0.218,35.49 10.352,45.626 22.854,45.626 L22.854,45.626 C35.354,45.626 45.492,35.49 45.492,22.988 L45.492,22.988 C45.492,10.484 35.354,0.35 22.854,0.35 L22.854,0.35 C10.352,0.35 0.218,10.484 0.218,22.988" id="path-1"></path>
        <path d="M0.218,22.988 C0.218,35.49 10.352,45.626 22.854,45.626 L22.854,45.626 C35.354,45.626 45.492,35.49 45.492,22.988 L45.492,22.988 C45.492,10.484 35.354,0.35 22.854,0.35 L22.854,0.35 C10.352,0.35 0.218,10.484 0.218,22.988" id="path-3"></path>
        <path d="M0.218,22.988 C0.218,35.49 10.352,45.626 22.854,45.626 L22.854,45.626 C35.354,45.626 45.492,35.49 45.492,22.988 L45.492,22.988 C45.492,10.484 35.354,0.35 22.854,0.35 L22.854,0.35 C10.352,0.35 0.218,10.484 0.218,22.988" id="path-5"></path>
        <polygon id="path-7" points="0 0.93959994 61.52752 0.93959994 61.52752 35.1292327 0 35.1292327"></polygon>
        <polyline id="path-9" points="1.3 2.968 0.58 7.728 6.152 6.2 11.092 2.428 6.69 0.272"></polyline>
        <polyline id="path-11" points="2.96 3.446 0.578 7.574 4.33 7.798 7.346 4.302 6.448 0.722"></polyline>
        <polyline id="path-13" points="4.372 0.508 0.18 2.778 3.26 4.934 7.662 3.534 8.772 0.014"></polyline>
    </defs>
    <g id="Badges-&amp;-Planets" stroke="none" stroke-width="1" fill="none" fill-rule="evenodd">
        <g transform="translate(-1046.000000, -421.000000)" id="planet-aquan">
            <g transform="translate(1045.000000, 413.000000)">
                <g id="planet-acquam" transform="translate(1.000000, 8.000000)">
                    <path d="M53.4916,24.3508 C53.4916,11.8488 43.3556,1.7128 30.8536,1.7128 C18.3516,1.7128 8.2156,11.8488 8.2156,24.3508 C8.2156,36.8528 18.3516,46.9888 30.8536,46.9888 C43.3556,46.9888 53.4916,36.8528 53.4916,24.3508" id="Fill-1" fill="#4DBCC2"></path>
                    <g id="Group-12" transform="translate(8.000000, 1.362800)">
                        <g id="Group-5">
                            <mask id="mask-2" fill="white">
                                <use xlink:href="#path-1"></use>
                            </mask>
                            <g id="Clip-4"></g>
                            <path d="M45.4448,23.1208 C45.4448,26.6268 44.6528,29.9508 43.2368,32.9168 C42.8628,32.8128 42.4968,32.6888 42.1428,32.5328 C39.8688,31.5548 38.0268,29.1708 38.4308,26.7288 C38.5828,25.8068 39.0288,24.8688 38.7268,23.9888 C37.8568,21.4548 33.2868,23.6148 31.5408,21.5868 C29.6128,19.3528 33.5708,15.2888 31.4748,13.2108 C30.2008,11.9488 27.8528,12.8468 26.3868,11.8168 C24.7108,10.6388 25.3648,8.0908 25.4268,6.0448 C25.4748,4.3368 23.7408,2.0628 23.0868,0.3508 C35.4748,0.5728 45.4448,10.6868 45.4448,23.1208" id="Fill-3" fill="#028484" mask="url(#mask-2)"></path>
                        </g>
                        <g id="Group-8">
                            <mask id="mask-4" fill="white">
                                <use xlink:href="#path-3"></use>
                            </mask>
                            <g id="Clip-7"></g>
                            <path d="M30.2924,38.0368 C28.7924,39.4988 26.2964,38.8288 24.4084,37.9228 C22.5164,37.0168 20.3264,35.9448 18.4464,36.8708 C17.9724,38.3648 18.7504,40.1548 20.1684,40.8288 C21.1624,41.2968 22.4424,41.3168 23.1064,42.1908 C23.4244,42.6128 23.5244,43.1528 23.6144,43.6708 C23.7424,44.4008 23.8744,45.1328 24.0024,45.8628 C23.5624,45.8868 23.1164,45.9008 22.6664,45.9008 C10.0844,45.9008 -0.1156,35.7028 -0.1156,23.1208 C-0.1156,19.7648 0.6104,16.5768 1.9164,13.7048 C3.7284,13.8988 5.8684,14.2688 8.3744,14.3028 C11.4544,14.3408 15.3404,14.3168 16.6144,17.1208 C17.5864,19.2568 16.4484,22.2288 18.1564,23.8368 C20.3924,25.9448 25.1524,23.3528 26.6784,26.0168 C27.8344,28.0228 25.6264,31.1568 27.3884,32.6548 C28.0084,33.1868 28.9024,33.2388 29.6224,33.6088 C31.1784,34.4028 31.5404,36.8228 30.2924,38.0368" id="Fill-6" fill="#028484" mask="url(#mask-4)"></path>
                        </g>
                        <g id="Group-11">
                            <mask id="mask-6" fill="white">
                                <use xlink:href="#path-5"></use>
                            </mask>
                            <g id="Clip-10"></g>
                            <path d="M35.6634,4.4118 C39.3814,8.4658 41.6554,13.8658 41.6554,19.7978 C41.6554,23.3058 40.8634,26.6278 39.4494,29.5938 C36.0754,36.6618 29.1754,41.7158 21.0214,42.4798 C20.7554,42.5038 20.4834,42.5278 20.2134,42.5398 C19.7734,42.5658 19.3254,42.5778 18.8754,42.5778 C14.0354,42.5778 9.5494,41.0638 5.8594,38.4898 C10.0254,43.0438 16.0154,45.9018 22.6734,45.9018 C23.1214,45.9018 23.5694,45.8878 24.0114,45.8638 C24.2814,45.8498 24.5514,45.8258 24.8174,45.8018 C32.9694,45.0378 39.8714,39.9838 43.2454,32.9158 C44.6594,29.9498 45.4534,26.6278 45.4534,23.1198 C45.4534,15.3718 41.5794,8.5258 35.6634,4.4118" id="Fill-9" fill="#60BFC1" mask="url(#mask-6)"></path>
                        </g>
                    </g>
                    <g id="Group-18" transform="translate(0.000000, 0.362800)">
                        <g id="Group-15" transform="translate(0.000000, 6.000000)">
                            <mask id="mask-8" fill="white">
                                <use xlink:href="#path-7"></use>
                            </mask>
                            <g id="Clip-14"></g>
                            <path d="M50.7084,2.2584 C52.4544,1.5944 54.2544,1.0704 56.2504,0.9524 C57.2524,0.9144 58.3144,0.9244 59.5124,1.5164 C60.0964,1.8124 60.7304,2.3364 61.1064,3.0804 C61.5064,3.8244 61.5644,4.6484 61.5104,5.3324 C61.3684,6.7204 60.8424,7.7424 60.3324,8.6784 C59.8044,9.6144 59.2084,10.4364 58.5904,11.2284 C57.3564,12.8104 55.9724,14.1644 54.5584,15.4664 C48.8344,20.5764 42.3624,24.4684 35.6144,27.7124 C28.8384,30.9004 21.7304,33.4504 14.1604,34.6664 C12.2564,34.9444 10.3344,35.1564 8.3304,35.1264 C7.3324,35.1104 6.3164,35.0484 5.2604,34.8764 C4.2084,34.6804 3.1144,34.4784 1.9404,33.7524 C1.3784,33.4084 0.7684,32.8444 0.4004,32.1124 C0.0244,31.3884 -0.0576,30.6024 0.0344,29.9164 C0.2584,28.5504 0.9224,27.6644 1.5924,26.9104 C2.9564,25.4244 4.5184,24.3944 6.1444,23.4724 C5.0604,24.9784 3.9464,26.4784 3.2624,28.0224 C2.9464,28.7824 2.7184,29.5684 2.8344,30.0444 C2.8884,30.2624 3.0024,30.4104 3.1144,30.4584 C3.2184,30.5024 3.3324,30.5544 3.5884,30.6044 C4.5844,30.8764 6.3584,30.7404 7.9484,30.3984 C9.5824,30.0764 11.2504,29.6204 12.9104,29.1144 C19.5604,27.0284 26.1004,24.1884 32.5124,21.1784 C38.9004,18.1204 45.2424,14.8504 51.0524,11.0104 C52.4944,10.0484 53.8964,9.0364 55.1744,7.9724 C56.4304,6.9604 57.6644,5.6464 58.0264,4.7444 C58.1804,4.3204 58.3444,4.3004 58.0064,3.8664 C57.6584,3.4684 56.8524,3.1744 56.0624,2.9364 C54.4164,2.4964 52.5624,2.3804 50.7084,2.2584" id="Fill-13" fill="#FEFEFE" opacity="0.4" mask="url(#mask-8)"></path>
                        </g>
                        <polygon id="Fill-16" fill="#4DBCC2" points="15.5814 7.7282 16.2994 2.9662 21.6914 0.2722 26.0934 2.4282 21.1514 6.2002"></polygon>
                    </g>
                    <g id="Group-21" transform="translate(15.000000, 0.362800)">
                        <mask id="mask-10" fill="white">
                            <use xlink:href="#path-9"></use>
                        </mask>
                        <g id="Clip-20"></g>
                        <path d="M7.017,-3.1478 C6.751,-0.0278 4.039,2.2882 0.963,2.0242 C-0.537,1.8962 -1.847,1.1802 -2.765,0.1182 C-1.895,1.7202 -0.277,2.8642 1.655,3.0282 C4.733,3.2922 7.447,0.9762 7.713,-2.1438 C7.849,-3.7438 7.315,-5.2438 6.349,-6.3618 C6.865,-5.4158 7.117,-4.3078 7.017,-3.1478" id="Fill-19" fill="#0D457F" mask="url(#mask-10)"></path>
                    </g>
                    <polygon id="Fill-22" fill="#4DBCC2" points="50.4486 35.0832 51.3466 38.6632 48.3286 42.1632 44.5786 41.9372 46.9606 37.8092"></polygon>
                    <g id="Group-26" transform="translate(44.000000, 34.362800)">
                        <mask id="mask-12" fill="white">
                            <use xlink:href="#path-11"></use>
                        </mask>
                        <g id="Clip-25"></g>
                        <path d="M5.1068,10.315 C4.3748,8.029 5.6088,5.589 7.8648,4.867 C8.9628,4.515 10.1008,4.635 11.0648,5.115 C9.9768,4.239 8.4928,3.907 7.0768,4.361 C4.8208,5.085 3.5868,7.523 4.3188,9.809 C4.6948,10.981 5.5148,11.887 6.5308,12.393 C5.8868,11.873 5.3808,11.165 5.1068,10.315" id="Fill-24" fill="#0D457F" mask="url(#mask-12)"></path>
                    </g>
                    <polygon id="Fill-27" fill="#4DBCC2" points="42.7708 43.3772 41.6608 46.8972 37.2588 48.2972 34.1808 46.1412 38.3728 43.8712"></polygon>
                    <g id="Group-31" transform="translate(34.000000, 43.362800)">
                        <mask id="mask-14" fill="white">
                            <use xlink:href="#path-13"></use>
                        </mask>
                        <g id="Clip-30"></g>
                        <path d="M2.603,7.485 C3.177,5.153 5.505,3.723 7.807,4.289 C8.925,4.565 9.831,5.263 10.401,6.175 C9.933,4.861 8.843,3.801 7.399,3.445 C5.099,2.879 2.771,4.311 2.197,6.643 C1.903,7.837 2.129,9.037 2.727,9.999 C2.451,9.221 2.391,8.353 2.603,7.485" id="Fill-29" fill="#0D457F" mask="url(#mask-14)"></path>
                    </g>
                </g>
            </g>
        </g>
    </g>
</svg>